{
   "name": "Single Virtual Machine",
   "description": "OpenStack example to instantiate virtual machine.",
   "version": "1.0",
   "type": "prebuilt",
   "status": "userCreated",
   "manifest": {
     "template_type": "Terraform",
     "template_format": "HCL",
     "template_provider": "OpenStack",
     "template": {
       "templateData": "",
       "templateVariables": "",
       "templateOutput": ""
     },
     "template_source": {
     "githubRepoUrl": "",
     "githubAccessToken": "",
     "templateFileName": "main.tf"
      }
   },
   "metadata": {
     "displayName": "Single Virtual Machine",
     "providerDisplayName": "OpenStack",
     "longDescription": "Single Virtual Machine Example",
     "bullets": [
      {
        "title": "Clouds",
        "description": "OpenStack"
      },
      {
        "title": "Template version",
        "description": "1.0<br>"
      },
      {
        "title": "Operating systems supported",
        "description": "CentOS 7"
      },
      {
        "title": "Topology",
        "description": "OpenStack: Single virtual machines"
      },
      {
        "title": "Default virtual machine settings",
        "description": "<ul><li>Openstack:<ul style=\"margin-left: 20px;\"><li>RedHat 7.8</li><ul style=\"margin-left: 20px;\"><li>Flavor: Cores = x, Memory = xxGB, Storage = xxGB SAN</li><li>Network: xxx</li></ul></ul>"
      },
      {
        "title": "Usage and special notes",
        "description": "<ul><li>1. Creates virtual servers in a OpenStack environment.</li><li>2. Deployment takes approximately 5 minutes to complete.</li></ul>"
      }
     ]
   }
 }
